%YAML 1.1
%TAG !u! tag:unity3d.com,2011:
--- !u!114 &11400000
MonoBehaviour:
  m_ObjectHideFlags: 0
  m_CorrespondingSourceObject: {fileID: 0}
  m_PrefabInstance: {fileID: 0}
  m_PrefabAsset: {fileID: 0}
  m_GameObject: {fileID: 0}
  m_Enabled: 1
  m_EditorHideFlags: 0
  m_Script: {fileID: 11500000, guid: bbafc1349b2c905448c2bcac2fc13016, type: 3}
  m_Name: SaveDangerZone 2
  m_EditorClassIdentifier: 
  lanes:
  - {fileID: 6144444593291057348, guid: ba1f4ca1fa3cba648b277f4583721173, type: 3}
  - {fileID: 6144444593291057348, guid: 2b73d8dec23fec641a8bca12035cc75a, type: 3}
  - {fileID: 6144444593291057348, guid: 73b6025eeb1b9884a80f7eb18325a701, type: 3}
  - {fileID: 6144444593291057348, guid: 6050218653c2df64788e0cca644e0049, type: 3}
  - {fileID: 6144444593291057348, guid: 2b73d8dec23fec641a8bca12035cc75a, type: 3}
  - {fileID: 6144444593291057348, guid: ba1f4ca1fa3cba648b277f4583721173, type: 3}
  - {fileID: 6144444593291057348, guid: c7208c3ca47752e4f98e60248d6399e3, type: 3}
